…
# Alternatively, We see that there are no missing values for any variables in the dataset.

# Identified all duplicates (please read the disclaimer in our comment below)
movies %>%
  group_by(title) %>% 
  filter(n()>1) %>%
  summarise(count(title))

## # A tibble: 53 × 2
##    title                       `count(title)`
##    <chr>                                <int>
##  1 A Nightmare on Elm Street                2
##  2 Across the Universe                      2
##  3 Alice in Wonderland                      2
##  4 Aloha                                    2
##  5 Around the World in 80 Days              2
##  6 Brothers                                 2
##  7 Carrie                                   2
##  8 Chasing Liberty                          2
##  9 Cinderella                               2
## 10 Clash of the Titans                      2
## # … with 43 more rows
…
